[0] Config.pm:304> INFO - This is Biber 2.13
[0] Config.pm:307> INFO - Logfile is 'BerichtModul1213.blg'
[24] biber-MSWIN64:315> INFO - === 
[39] Biber.pm:375> INFO - Reading 'BerichtModul1213.bcf'
[120] Biber.pm:905> INFO - Found 0 citekeys in bib section 0
[126] Utils.pm:300> WARN - The file 'BerichtModul1213.bcf' does not contain any citations!
[133] bbl.pm:648> INFO - Writing 'BerichtModul1213.bbl' with encoding 'UTF-8'
[134] bbl.pm:751> INFO - Output to BerichtModul1213.bbl
[135] Biber.pm:110> INFO - WARNINGS: 1
